{
  "pedidos": [
    {
      "descricao": "novo pedido - 1636671889002",
      "status": "A",
      "id": 1
    },
    {
      "descricao": "novo pedido - 1636671893398",
      "status": "A",
      "id": 2
    }
  ]
}